%YAML 1.1
%TAG !u! tag:unity3d.com,2011:
--- !u!1 &2792818088970967769
GameObject:
  m_ObjectHideFlags: 0
  m_CorrespondingSourceObject: {fileID: 0}
  m_PrefabInstance: {fileID: 0}
  m_PrefabAsset: {fileID: 0}
  serializedVersion: 6
  m_Component:
  - component: {fileID: 2792818088970967749}
  - component: {fileID: 2792818088970967770}
  - component: {fileID: 2792818088970967771}
  - component: {fileID: 2792818088970967768}
  m_Layer: 0
  m_Name: old_pistol_PREFAB
  m_TagString: eq
  m_Icon: {fileID: 0}
  m_NavMeshLayer: 0
  m_StaticEditorFlags: 0
  m_IsActive: 1
--- !u!4 &2792818088970967749
Transform:
  m_ObjectHideFlags: 0
  m_CorrespondingSourceObject: {fileID: 0}
  m_PrefabInstance: {fileID: 0}
  m_PrefabAsset: {fileID: 0}
  m_GameObject: {fileID: 2792818088970967769}
  m_LocalRotation: {x: 0, y: 0, z: 0, w: 1}
  m_LocalPosition: {x: -61.986, y: 5.842, z: 52.839}
  m_LocalScale: {x: 1, y: 1, z: 1}
  m_Children:
  - {fileID: 7185670844472785757}
  m_Father: {fileID: 0}
  m_RootOrder: 0
  m_LocalEulerAnglesHint: {x: 0, y: 0, z: 0}
--- !u!114 &2792818088970967770
MonoBehaviour:
  m_ObjectHideFlags: 0
  m_CorrespondingSourceObject: {fileID: 0}
  m_PrefabInstance: {fileID: 0}
  m_PrefabAsset: {fileID: 0}
  m_GameObject: {fileID: 2792818088970967769}
  m_Enabled: 1
  m_EditorHideFlags: 0
  m_Script: {fileID: 11500000, guid: 440671a7a3b7c4e4894112d6e36ada42, type: 3}
  m_Name: 
  m_EditorClassIdentifier: 
  ID: old_pistol
--- !u!54 &2792818088970967771
Rigidbody:
  m_ObjectHideFlags: 0
  m_CorrespondingSourceObject: {fileID: 0}
  m_PrefabInstance: {fileID: 0}
  m_PrefabAsset: {fileID: 0}
  m_GameObject: {fileID: 2792818088970967769}
  serializedVersion: 2
  m_Mass: 1
  m_Drag: 0
  m_AngularDrag: 0.05
  m_UseGravity: 1
  m_IsKinematic: 0
  m_Interpolate: 0
  m_Constraints: 0
  m_CollisionDetection: 0
--- !u!65 &2792818088970967768
BoxCollider:
  m_ObjectHideFlags: 0
  m_CorrespondingSourceObject: {fileID: 0}
  m_PrefabInstance: {fileID: 0}
  m_PrefabAsset: {fileID: 0}
  m_GameObject: {fileID: 2792818088970967769}
  m_Material: {fileID: 0}
  m_IsTrigger: 0
  m_Enabled: 1
  serializedVersion: 2
  m_Size: {x: 0.030000001, y: 0.1355524, z: 0.22367096}
  m_Center: {x: 0.0016040802, y: -0.0015511513, z: 0.009963989}
--- !u!1001 &2792818089118912583
PrefabInstance:
  m_ObjectHideFlags: 0
  serializedVersion: 2
  m_Modification:
    m_TransformParent: {fileID: 2792818088970967749}
    m_Modifications:
    - target: {fileID: -4216859302048453862, guid: d067fa59e58e44446996e1f773c1c83b,
        type: 3}
      propertyPath: m_LocalPosition.x
      value: -0
      objectReference: {fileID: 0}
    - target: {fileID: -4216859302048453862, guid: d067fa59e58e44446996e1f773c1c83b,
        type: 3}
      propertyPath: m_LocalPosition.y
      value: 0
      objectReference: {fileID: 0}
    - target: {fileID: -4216859302048453862, guid: d067fa59e58e44446996e1f773c1c83b,
        type: 3}
      propertyPath: m_LocalPosition.z
      value: 0
      objectReference: {fileID: 0}
    - target: {fileID: -4216859302048453862, guid: d067fa59e58e44446996e1f773c1c83b,
        type: 3}
      propertyPath: m_LocalRotation.x
      value: -0.7071068
      objectReference: {fileID: 0}
    - target: {fileID: -4216859302048453862, guid: d067fa59e58e44446996e1f773c1c83b,
        type: 3}
      propertyPath: m_LocalRotation.y
      value: -0.0000003799796
      objectReference: {fileID: 0}
    - target: {fileID: -4216859302048453862, guid: d067fa59e58e44446996e1f773c1c83b,
        type: 3}
      propertyPath: m_LocalRotation.z
      value: -0.0000004018095
      objectReference: {fileID: 0}
    - target: {fileID: -4216859302048453862, guid: d067fa59e58e44446996e1f773c1c83b,
        type: 3}
      propertyPath: m_LocalRotation.w
      value: 0.7071068
      objectReference: {fileID: 0}
    - target: {fileID: -4216859302048453862, guid: d067fa59e58e44446996e1f773c1c83b,
        type: 3}
      propertyPath: m_RootOrder
      value: 0
      objectReference: {fileID: 0}
    - target: {fileID: -4216859302048453862, guid: d067fa59e58e44446996e1f773c1c83b,
        type: 3}
      propertyPath: m_LocalEulerAnglesHint.x
      value: -90.00001
      objectReference: {fileID: 0}
    - target: {fileID: -4216859302048453862, guid: d067fa59e58e44446996e1f773c1c83b,
        type: 3}
      propertyPath: m_LocalEulerAnglesHint.y
      value: 0
      objectReference: {fileID: 0}
    - target: {fileID: -4216859302048453862, guid: d067fa59e58e44446996e1f773c1c83b,
        type: 3}
      propertyPath: m_LocalEulerAnglesHint.z
      value: 0
      objectReference: {fileID: 0}
    - target: {fileID: -3936284842060107824, guid: d067fa59e58e44446996e1f773c1c83b,
        type: 3}
      propertyPath: m_IsActive
      value: 0
      objectReference: {fileID: 0}
    - target: {fileID: -1504981713932161579, guid: d067fa59e58e44446996e1f773c1c83b,
        type: 3}
      propertyPath: m_Materials.Array.data[0]
      value: 
      objectReference: {fileID: 2100000, guid: b1879b71d579d114ab599cfc5787f25f, type: 2}
    - target: {fileID: -927199367670048503, guid: d067fa59e58e44446996e1f773c1c83b,
        type: 3}
      propertyPath: m_Name
      value: old_pistol
      objectReference: {fileID: 0}
    m_RemovedComponents: []
  m_SourcePrefab: {fileID: 100100000, guid: d067fa59e58e44446996e1f773c1c83b, type: 3}
--- !u!4 &7185670844472785757 stripped
Transform:
  m_CorrespondingSourceObject: {fileID: -4216859302048453862, guid: d067fa59e58e44446996e1f773c1c83b,
    type: 3}
  m_PrefabInstance: {fileID: 2792818089118912583}
  m_PrefabAsset: {fileID: 0}
