%YAML 1.1
%TAG !u! tag:unity3d.com,2011:
--- !u!1 &2815532821249364814
GameObject:
  m_ObjectHideFlags: 0
  m_CorrespondingSourceObject: {fileID: 0}
  m_PrefabInstance: {fileID: 0}
  m_PrefabAsset: {fileID: 0}
  serializedVersion: 6
  m_Component:
  - component: {fileID: 2815532821249364815}
  - component: {fileID: 2815532821249364813}
  - component: {fileID: 2815532821249364812}
  m_Layer: 0
  m_Name: Camera
  m_TagString: Untagged
  m_Icon: {fileID: 0}
  m_NavMeshLayer: 0
  m_StaticEditorFlags: 0
  m_IsActive: 0
--- !u!4 &2815532821249364815
Transform:
  m_ObjectHideFlags: 0
  m_CorrespondingSourceObject: {fileID: 0}
  m_PrefabInstance: {fileID: 0}
  m_PrefabAsset: {fileID: 0}
  m_GameObject: {fileID: 2815532821249364814}
  m_LocalRotation: {x: 0.7071068, y: -0.00000036878492, z: 0.00000020019749, w: 0.7071067}
  m_LocalPosition: {x: 0, y: -0.000284, z: 0.000037}
  m_LocalScale: {x: 0.01, y: 0.009999998, z: 0.009999998}
  m_Children: []
  m_Father: {fileID: 7091054922346206895}
  m_RootOrder: 2
  m_LocalEulerAnglesHint: {x: 90.00001, y: 0, z: 0}
--- !u!20 &2815532821249364813
Camera:
  m_ObjectHideFlags: 0
  m_CorrespondingSourceObject: {fileID: 0}
  m_PrefabInstance: {fileID: 0}
  m_PrefabAsset: {fileID: 0}
  m_GameObject: {fileID: 2815532821249364814}
  m_Enabled: 1
  serializedVersion: 2
  m_ClearFlags: 1
  m_BackGroundColor: {r: 0.19215687, g: 0.3019608, b: 0.4745098, a: 0}
  m_projectionMatrixMode: 1
  m_GateFitMode: 2
  m_FOVAxisMode: 0
  m_SensorSize: {x: 36, y: 24}
  m_LensShift: {x: 0, y: 0}
  m_FocalLength: 50
  m_NormalizedViewPortRect:
    serializedVersion: 2
    x: 0
    y: 0
    width: 1
    height: 1
  near clip plane: 0.01
  far clip plane: 1000
  field of view: 5.9
  orthographic: 0
  orthographic size: 5
  m_Depth: 0
  m_CullingMask:
    serializedVersion: 2
    m_Bits: 4294967295
  m_RenderingPath: -1
  m_TargetTexture: {fileID: 8400000, guid: 90c746d58f746034bb5181b9fe46880c, type: 2}
  m_TargetDisplay: 0
  m_TargetEye: 3
  m_HDR: 1
  m_AllowMSAA: 1
  m_AllowDynamicResolution: 0
  m_ForceIntoRT: 0
  m_OcclusionCulling: 1
  m_StereoConvergence: 10
  m_StereoSeparation: 0.022
--- !u!81 &2815532821249364812
AudioListener:
  m_ObjectHideFlags: 0
  m_CorrespondingSourceObject: {fileID: 0}
  m_PrefabInstance: {fileID: 0}
  m_PrefabAsset: {fileID: 0}
  m_GameObject: {fileID: 2815532821249364814}
  m_Enabled: 1
--- !u!1 &2815532821912418379
GameObject:
  m_ObjectHideFlags: 0
  m_CorrespondingSourceObject: {fileID: 0}
  m_PrefabInstance: {fileID: 0}
  m_PrefabAsset: {fileID: 0}
  serializedVersion: 6
  m_Component:
  - component: {fileID: 2815532821912418376}
  - component: {fileID: 7653063658199923365}
  - component: {fileID: 7653063658199923363}
  - component: {fileID: 7653063658199923364}
  m_Layer: 0
  m_Name: red_dot_c_pickUp_prefab
  m_TagString: eq
  m_Icon: {fileID: 0}
  m_NavMeshLayer: 0
  m_StaticEditorFlags: 0
  m_IsActive: 1
--- !u!4 &2815532821912418376
Transform:
  m_ObjectHideFlags: 0
  m_CorrespondingSourceObject: {fileID: 0}
  m_PrefabInstance: {fileID: 0}
  m_PrefabAsset: {fileID: 0}
  m_GameObject: {fileID: 2815532821912418379}
  m_LocalRotation: {x: 0, y: 0, z: 0, w: 1}
  m_LocalPosition: {x: -56.15838, y: 6.493958, z: 55.763927}
  m_LocalScale: {x: 1, y: 1, z: 1}
  m_Children:
  - {fileID: 7091054922346206895}
  m_Father: {fileID: 0}
  m_RootOrder: 0
  m_LocalEulerAnglesHint: {x: 0, y: 0, z: 0}
--- !u!54 &7653063658199923365
Rigidbody:
  m_ObjectHideFlags: 0
  m_CorrespondingSourceObject: {fileID: 0}
  m_PrefabInstance: {fileID: 0}
  m_PrefabAsset: {fileID: 0}
  m_GameObject: {fileID: 2815532821912418379}
  serializedVersion: 2
  m_Mass: 1
  m_Drag: 0
  m_AngularDrag: 0.05
  m_UseGravity: 1
  m_IsKinematic: 0
  m_Interpolate: 0
  m_Constraints: 0
  m_CollisionDetection: 0
--- !u!65 &7653063658199923363
BoxCollider:
  m_ObjectHideFlags: 0
  m_CorrespondingSourceObject: {fileID: 0}
  m_PrefabInstance: {fileID: 0}
  m_PrefabAsset: {fileID: 0}
  m_GameObject: {fileID: 2815532821912418379}
  m_Material: {fileID: 0}
  m_IsTrigger: 0
  m_Enabled: 1
  serializedVersion: 2
  m_Size: {x: 0.043956757, y: 0.05079317, z: 0.069618225}
  m_Center: {x: 0.00040626526, y: -0.0036695004, z: -0.0013771057}
--- !u!114 &7653063658199923364
MonoBehaviour:
  m_ObjectHideFlags: 0
  m_CorrespondingSourceObject: {fileID: 0}
  m_PrefabInstance: {fileID: 0}
  m_PrefabAsset: {fileID: 0}
  m_GameObject: {fileID: 2815532821912418379}
  m_Enabled: 1
  m_EditorHideFlags: 0
  m_Script: {fileID: 11500000, guid: 440671a7a3b7c4e4894112d6e36ada42, type: 3}
  m_Name: 
  m_EditorClassIdentifier: 
  ID: red_dot_c
--- !u!1001 &2815532822333406645
PrefabInstance:
  m_ObjectHideFlags: 0
  serializedVersion: 2
  m_Modification:
    m_TransformParent: {fileID: 2815532821912418376}
    m_Modifications:
    - target: {fileID: -6575300523908342488, guid: 18da6e425a09bcf47b4cf83ec058b009,
        type: 3}
      propertyPath: m_Materials.Array.data[0]
      value: 
      objectReference: {fileID: 2100000, guid: fc0058242bbeea448951beb09dc8f149, type: 2}
    - target: {fileID: -4216859302048453862, guid: 18da6e425a09bcf47b4cf83ec058b009,
        type: 3}
      propertyPath: m_LocalPosition.x
      value: 0
      objectReference: {fileID: 0}
    - target: {fileID: -4216859302048453862, guid: 18da6e425a09bcf47b4cf83ec058b009,
        type: 3}
      propertyPath: m_LocalPosition.y
      value: 0
      objectReference: {fileID: 0}
    - target: {fileID: -4216859302048453862, guid: 18da6e425a09bcf47b4cf83ec058b009,
        type: 3}
      propertyPath: m_LocalPosition.z
      value: 0
      objectReference: {fileID: 0}
    - target: {fileID: -4216859302048453862, guid: 18da6e425a09bcf47b4cf83ec058b009,
        type: 3}
      propertyPath: m_LocalRotation.x
      value: -0.7071068
      objectReference: {fileID: 0}
    - target: {fileID: -4216859302048453862, guid: 18da6e425a09bcf47b4cf83ec058b009,
        type: 3}
      propertyPath: m_LocalRotation.y
      value: -0
      objectReference: {fileID: 0}
    - target: {fileID: -4216859302048453862, guid: 18da6e425a09bcf47b4cf83ec058b009,
        type: 3}
      propertyPath: m_LocalRotation.z
      value: -0
      objectReference: {fileID: 0}
    - target: {fileID: -4216859302048453862, guid: 18da6e425a09bcf47b4cf83ec058b009,
        type: 3}
      propertyPath: m_LocalRotation.w
      value: 0.7071067
      objectReference: {fileID: 0}
    - target: {fileID: -4216859302048453862, guid: 18da6e425a09bcf47b4cf83ec058b009,
        type: 3}
      propertyPath: m_RootOrder
      value: 0
      objectReference: {fileID: 0}
    - target: {fileID: -4216859302048453862, guid: 18da6e425a09bcf47b4cf83ec058b009,
        type: 3}
      propertyPath: m_LocalEulerAnglesHint.x
      value: 0
      objectReference: {fileID: 0}
    - target: {fileID: -4216859302048453862, guid: 18da6e425a09bcf47b4cf83ec058b009,
        type: 3}
      propertyPath: m_LocalEulerAnglesHint.y
      value: 0
      objectReference: {fileID: 0}
    - target: {fileID: -4216859302048453862, guid: 18da6e425a09bcf47b4cf83ec058b009,
        type: 3}
      propertyPath: m_LocalEulerAnglesHint.z
      value: 0
      objectReference: {fileID: 0}
    - target: {fileID: -4216859302048453862, guid: 18da6e425a09bcf47b4cf83ec058b009,
        type: 3}
      propertyPath: m_LocalScale.y
      value: 100
      objectReference: {fileID: 0}
    - target: {fileID: -4216859302048453862, guid: 18da6e425a09bcf47b4cf83ec058b009,
        type: 3}
      propertyPath: m_LocalScale.z
      value: 100
      objectReference: {fileID: 0}
    - target: {fileID: -1916735919676561203, guid: 18da6e425a09bcf47b4cf83ec058b009,
        type: 3}
      propertyPath: m_IsActive
      value: 1
      objectReference: {fileID: 0}
    - target: {fileID: -1504981713932161579, guid: 18da6e425a09bcf47b4cf83ec058b009,
        type: 3}
      propertyPath: m_Materials.Array.data[0]
      value: 
      objectReference: {fileID: 2100000, guid: 055a6c474938af3409aaaae47d7ae0b0, type: 2}
    - target: {fileID: -1179480573256130451, guid: 18da6e425a09bcf47b4cf83ec058b009,
        type: 3}
      propertyPath: m_Materials.Array.data[0]
      value: 
      objectReference: {fileID: 2100000, guid: f825b589726b2884aab7ef41c5257991, type: 2}
    - target: {fileID: -1130010371651748183, guid: 18da6e425a09bcf47b4cf83ec058b009,
        type: 3}
      propertyPath: m_Materials.Array.data[0]
      value: 
      objectReference: {fileID: 2100000, guid: 2465f69206fc3dd47af31fe837918ed5, type: 2}
    - target: {fileID: -927199367670048503, guid: 18da6e425a09bcf47b4cf83ec058b009,
        type: 3}
      propertyPath: m_Name
      value: red_dot_c
      objectReference: {fileID: 0}
    - target: {fileID: 2361800800670995458, guid: 18da6e425a09bcf47b4cf83ec058b009,
        type: 3}
      propertyPath: m_Materials.Array.data[0]
      value: 
      objectReference: {fileID: 2100000, guid: 512fe9f65b16e8949b17e85653f33daa, type: 2}
    - target: {fileID: 2620915540286499431, guid: 18da6e425a09bcf47b4cf83ec058b009,
        type: 3}
      propertyPath: m_RootOrder
      value: 4
      objectReference: {fileID: 0}
    - target: {fileID: 4827749689997240112, guid: 18da6e425a09bcf47b4cf83ec058b009,
        type: 3}
      propertyPath: m_RootOrder
      value: 3
      objectReference: {fileID: 0}
    m_RemovedComponents: []
  m_SourcePrefab: {fileID: 100100000, guid: 18da6e425a09bcf47b4cf83ec058b009, type: 3}
--- !u!4 &7091054922346206895 stripped
Transform:
  m_CorrespondingSourceObject: {fileID: -4216859302048453862, guid: 18da6e425a09bcf47b4cf83ec058b009,
    type: 3}
  m_PrefabInstance: {fileID: 2815532822333406645}
  m_PrefabAsset: {fileID: 0}
