%YAML 1.1
%TAG !u! tag:unity3d.com,2011:
--- !u!1 &4012260486838158805
GameObject:
  m_ObjectHideFlags: 0
  m_CorrespondingSourceObject: {fileID: 0}
  m_PrefabInstance: {fileID: 0}
  m_PrefabAsset: {fileID: 0}
  serializedVersion: 6
  m_Component:
  - component: {fileID: 4012260486838158803}
  - component: {fileID: 4012260486838158802}
  - component: {fileID: 4012260486838158800}
  - component: {fileID: 6218396770954442677}
  - component: {fileID: 6903161232200715190}
  m_Layer: 0
  m_Name: petrol_prefab
  m_TagString: petrol
  m_Icon: {fileID: 0}
  m_NavMeshLayer: 0
  m_StaticEditorFlags: 0
  m_IsActive: 1
--- !u!4 &4012260486838158803
Transform:
  m_ObjectHideFlags: 0
  m_CorrespondingSourceObject: {fileID: 0}
  m_PrefabInstance: {fileID: 0}
  m_PrefabAsset: {fileID: 0}
  m_GameObject: {fileID: 4012260486838158805}
  m_LocalRotation: {x: 0, y: 0, z: 0, w: 1}
  m_LocalPosition: {x: -38.952, y: 4.3328443, z: 1.45}
  m_LocalScale: {x: 1, y: 1, z: 1}
  m_Children:
  - {fileID: 8274481858960143374}
  m_Father: {fileID: 0}
  m_RootOrder: 0
  m_LocalEulerAnglesHint: {x: 0, y: 0, z: 0}
--- !u!65 &4012260486838158802
BoxCollider:
  m_ObjectHideFlags: 0
  m_CorrespondingSourceObject: {fileID: 0}
  m_PrefabInstance: {fileID: 0}
  m_PrefabAsset: {fileID: 0}
  m_GameObject: {fileID: 4012260486838158805}
  m_Material: {fileID: 0}
  m_IsTrigger: 0
  m_Enabled: 1
  serializedVersion: 2
  m_Size: {x: 0.21354485, y: 0.7453213, z: 0.5310794}
  m_Center: {x: 0.0037755966, y: 0.3663535, z: -0.010850489}
--- !u!114 &4012260486838158800
MonoBehaviour:
  m_ObjectHideFlags: 0
  m_CorrespondingSourceObject: {fileID: 0}
  m_PrefabInstance: {fileID: 0}
  m_PrefabAsset: {fileID: 0}
  m_GameObject: {fileID: 4012260486838158805}
  m_Enabled: 1
  m_EditorHideFlags: 0
  m_Script: {fileID: 11500000, guid: e9f71671f71addb45896bf5b6b9fff7c, type: 3}
  m_Name: 
  m_EditorClassIdentifier: 
  fire_ball: {fileID: 958239047155488141, guid: dd30dc5dd4807714eb2761ea7fc6d5ce,
    type: 3}
  force: 700
  fireball_count: 18
  explosion: {fileID: 8300000, guid: cf4b2cb375a6bb447a75e4c7bf118fe6, type: 3}
  Audio_on: {fileID: 842647149582474905, guid: dd9cfba581d957948a7fc62fbabfc5e0, type: 3}
  Straight_start: 0
--- !u!54 &6218396770954442677
Rigidbody:
  m_ObjectHideFlags: 0
  m_CorrespondingSourceObject: {fileID: 0}
  m_PrefabInstance: {fileID: 0}
  m_PrefabAsset: {fileID: 0}
  m_GameObject: {fileID: 4012260486838158805}
  serializedVersion: 2
  m_Mass: 1
  m_Drag: 0
  m_AngularDrag: 0.05
  m_UseGravity: 1
  m_IsKinematic: 0
  m_Interpolate: 0
  m_Constraints: 0
  m_CollisionDetection: 0
--- !u!208 &6903161232200715190
NavMeshObstacle:
  m_ObjectHideFlags: 0
  m_CorrespondingSourceObject: {fileID: 0}
  m_PrefabInstance: {fileID: 0}
  m_PrefabAsset: {fileID: 0}
  m_GameObject: {fileID: 4012260486838158805}
  m_Enabled: 1
  serializedVersion: 3
  m_Shape: 1
  m_Extents: {x: 0.1067724, y: 0.37266064, z: 0.2655397}
  m_MoveThreshold: 0.1
  m_Carve: 0
  m_CarveOnlyStationary: 1
  m_Center: {x: 0, y: 0.3663535, z: 0}
  m_TimeToStationary: 0.5
--- !u!1001 &4012260486667181844
PrefabInstance:
  m_ObjectHideFlags: 0
  serializedVersion: 2
  m_Modification:
    m_TransformParent: {fileID: 4012260486838158803}
    m_Modifications:
    - target: {fileID: -4216859302048453862, guid: 09afba6a7341e5a4c817856d08f34855,
        type: 3}
      propertyPath: m_LocalPosition.x
      value: 0
      objectReference: {fileID: 0}
    - target: {fileID: -4216859302048453862, guid: 09afba6a7341e5a4c817856d08f34855,
        type: 3}
      propertyPath: m_LocalPosition.y
      value: 0
      objectReference: {fileID: 0}
    - target: {fileID: -4216859302048453862, guid: 09afba6a7341e5a4c817856d08f34855,
        type: 3}
      propertyPath: m_LocalPosition.z
      value: 0
      objectReference: {fileID: 0}
    - target: {fileID: -4216859302048453862, guid: 09afba6a7341e5a4c817856d08f34855,
        type: 3}
      propertyPath: m_LocalRotation.x
      value: -0.70710707
      objectReference: {fileID: 0}
    - target: {fileID: -4216859302048453862, guid: 09afba6a7341e5a4c817856d08f34855,
        type: 3}
      propertyPath: m_LocalRotation.y
      value: -0
      objectReference: {fileID: 0}
    - target: {fileID: -4216859302048453862, guid: 09afba6a7341e5a4c817856d08f34855,
        type: 3}
      propertyPath: m_LocalRotation.z
      value: -0
      objectReference: {fileID: 0}
    - target: {fileID: -4216859302048453862, guid: 09afba6a7341e5a4c817856d08f34855,
        type: 3}
      propertyPath: m_LocalRotation.w
      value: 0.70710653
      objectReference: {fileID: 0}
    - target: {fileID: -4216859302048453862, guid: 09afba6a7341e5a4c817856d08f34855,
        type: 3}
      propertyPath: m_RootOrder
      value: 0
      objectReference: {fileID: 0}
    - target: {fileID: -4216859302048453862, guid: 09afba6a7341e5a4c817856d08f34855,
        type: 3}
      propertyPath: m_LocalEulerAnglesHint.x
      value: -90.00001
      objectReference: {fileID: 0}
    - target: {fileID: -4216859302048453862, guid: 09afba6a7341e5a4c817856d08f34855,
        type: 3}
      propertyPath: m_LocalEulerAnglesHint.y
      value: 0
      objectReference: {fileID: 0}
    - target: {fileID: -4216859302048453862, guid: 09afba6a7341e5a4c817856d08f34855,
        type: 3}
      propertyPath: m_LocalEulerAnglesHint.z
      value: 0
      objectReference: {fileID: 0}
    - target: {fileID: -4216859302048453862, guid: 09afba6a7341e5a4c817856d08f34855,
        type: 3}
      propertyPath: m_LocalScale.x
      value: 100
      objectReference: {fileID: 0}
    - target: {fileID: -4216859302048453862, guid: 09afba6a7341e5a4c817856d08f34855,
        type: 3}
      propertyPath: m_LocalScale.y
      value: 100
      objectReference: {fileID: 0}
    - target: {fileID: -4216859302048453862, guid: 09afba6a7341e5a4c817856d08f34855,
        type: 3}
      propertyPath: m_LocalScale.z
      value: 100
      objectReference: {fileID: 0}
    - target: {fileID: -1504981713932161579, guid: 09afba6a7341e5a4c817856d08f34855,
        type: 3}
      propertyPath: m_Materials.Array.data[0]
      value: 
      objectReference: {fileID: 2100000, guid: a74b8192710420c468b50336e3e64359, type: 2}
    - target: {fileID: -927199367670048503, guid: 09afba6a7341e5a4c817856d08f34855,
        type: 3}
      propertyPath: m_Name
      value: petrol
      objectReference: {fileID: 0}
    m_RemovedComponents: []
  m_SourcePrefab: {fileID: 100100000, guid: 09afba6a7341e5a4c817856d08f34855, type: 3}
--- !u!4 &8274481858960143374 stripped
Transform:
  m_CorrespondingSourceObject: {fileID: -4216859302048453862, guid: 09afba6a7341e5a4c817856d08f34855,
    type: 3}
  m_PrefabInstance: {fileID: 4012260486667181844}
  m_PrefabAsset: {fileID: 0}
