%YAML 1.1
%TAG !u! tag:unity3d.com,2011:
--- !u!1 &5429017516198186652
GameObject:
  m_ObjectHideFlags: 0
  m_CorrespondingSourceObject: {fileID: 0}
  m_PrefabInstance: {fileID: 0}
  m_PrefabAsset: {fileID: 0}
  serializedVersion: 6
  m_Component:
  - component: {fileID: 3858145877610117543}
  - component: {fileID: 3794562748369559780}
  - component: {fileID: 7612956220377824464}
  - component: {fileID: -6648147732201432116}
  m_Layer: 0
  m_Name: 9mm_prefab
  m_TagString: Untagged
  m_Icon: {fileID: 0}
  m_NavMeshLayer: 0
  m_StaticEditorFlags: 0
  m_IsActive: 1
--- !u!4 &3858145877610117543
Transform:
  m_ObjectHideFlags: 0
  m_CorrespondingSourceObject: {fileID: 0}
  m_PrefabInstance: {fileID: 0}
  m_PrefabAsset: {fileID: 0}
  m_GameObject: {fileID: 5429017516198186652}
  m_LocalRotation: {x: 0, y: 0, z: 0, w: 1}
  m_LocalPosition: {x: -0.000024, y: 0.000837, z: 0.000564}
  m_LocalScale: {x: 1, y: 1, z: 1}
  m_Children:
  - {fileID: 6270688578644698466}
  m_Father: {fileID: 0}
  m_RootOrder: 0
  m_LocalEulerAnglesHint: {x: 0, y: 0, z: 0}
--- !u!54 &3794562748369559780
Rigidbody:
  m_ObjectHideFlags: 0
  m_CorrespondingSourceObject: {fileID: 0}
  m_PrefabInstance: {fileID: 0}
  m_PrefabAsset: {fileID: 0}
  m_GameObject: {fileID: 5429017516198186652}
  serializedVersion: 2
  m_Mass: 1
  m_Drag: 0
  m_AngularDrag: 0.05
  m_UseGravity: 1
  m_IsKinematic: 0
  m_Interpolate: 0
  m_Constraints: 0
  m_CollisionDetection: 0
--- !u!65 &7612956220377824464
BoxCollider:
  m_ObjectHideFlags: 0
  m_CorrespondingSourceObject: {fileID: 0}
  m_PrefabInstance: {fileID: 0}
  m_PrefabAsset: {fileID: 0}
  m_GameObject: {fileID: 5429017516198186652}
  m_Material: {fileID: 0}
  m_IsTrigger: 1
  m_Enabled: 1
  serializedVersion: 2
  m_Size: {x: 0.01, y: 0.01, z: 0.022458017}
  m_Center: {x: 0, y: 0, z: -0.000095419586}
--- !u!114 &-6648147732201432116
MonoBehaviour:
  m_ObjectHideFlags: 0
  m_CorrespondingSourceObject: {fileID: 0}
  m_PrefabInstance: {fileID: 0}
  m_PrefabAsset: {fileID: 0}
  m_GameObject: {fileID: 5429017516198186652}
  m_Enabled: 1
  m_EditorHideFlags: 0
  m_Script: {fileID: 11500000, guid: e8d8b74bec981af4f81412956fe7ee24, type: 3}
  m_Name: 
  m_EditorClassIdentifier: 
  ticks: 100
  to_destory: []
  multipy_timer: 0
--- !u!1001 &1332857438980722296
PrefabInstance:
  m_ObjectHideFlags: 0
  serializedVersion: 2
  m_Modification:
    m_TransformParent: {fileID: 3858145877610117543}
    m_Modifications:
    - target: {fileID: -4216859302048453862, guid: 3ac20c35b3215974e8c345074c60980e,
        type: 3}
      propertyPath: m_LocalPosition.x
      value: 0
      objectReference: {fileID: 0}
    - target: {fileID: -4216859302048453862, guid: 3ac20c35b3215974e8c345074c60980e,
        type: 3}
      propertyPath: m_LocalPosition.y
      value: 0
      objectReference: {fileID: 0}
    - target: {fileID: -4216859302048453862, guid: 3ac20c35b3215974e8c345074c60980e,
        type: 3}
      propertyPath: m_LocalPosition.z
      value: 0
      objectReference: {fileID: 0}
    - target: {fileID: -4216859302048453862, guid: 3ac20c35b3215974e8c345074c60980e,
        type: 3}
      propertyPath: m_LocalRotation.x
      value: -0.7071068
      objectReference: {fileID: 0}
    - target: {fileID: -4216859302048453862, guid: 3ac20c35b3215974e8c345074c60980e,
        type: 3}
      propertyPath: m_LocalRotation.y
      value: -0
      objectReference: {fileID: 0}
    - target: {fileID: -4216859302048453862, guid: 3ac20c35b3215974e8c345074c60980e,
        type: 3}
      propertyPath: m_LocalRotation.z
      value: -0
      objectReference: {fileID: 0}
    - target: {fileID: -4216859302048453862, guid: 3ac20c35b3215974e8c345074c60980e,
        type: 3}
      propertyPath: m_LocalRotation.w
      value: 0.7071067
      objectReference: {fileID: 0}
    - target: {fileID: -4216859302048453862, guid: 3ac20c35b3215974e8c345074c60980e,
        type: 3}
      propertyPath: m_RootOrder
      value: 0
      objectReference: {fileID: 0}
    - target: {fileID: -4216859302048453862, guid: 3ac20c35b3215974e8c345074c60980e,
        type: 3}
      propertyPath: m_LocalEulerAnglesHint.x
      value: 0
      objectReference: {fileID: 0}
    - target: {fileID: -4216859302048453862, guid: 3ac20c35b3215974e8c345074c60980e,
        type: 3}
      propertyPath: m_LocalEulerAnglesHint.y
      value: 0
      objectReference: {fileID: 0}
    - target: {fileID: -4216859302048453862, guid: 3ac20c35b3215974e8c345074c60980e,
        type: 3}
      propertyPath: m_LocalEulerAnglesHint.z
      value: 0
      objectReference: {fileID: 0}
    - target: {fileID: -4216859302048453862, guid: 3ac20c35b3215974e8c345074c60980e,
        type: 3}
      propertyPath: m_LocalScale.y
      value: 99.99997
      objectReference: {fileID: 0}
    - target: {fileID: -4216859302048453862, guid: 3ac20c35b3215974e8c345074c60980e,
        type: 3}
      propertyPath: m_LocalScale.z
      value: 99.99997
      objectReference: {fileID: 0}
    - target: {fileID: -1504981713932161579, guid: 3ac20c35b3215974e8c345074c60980e,
        type: 3}
      propertyPath: m_Materials.Array.data[0]
      value: 
      objectReference: {fileID: 2100000, guid: b50050d591248c748acccdd9de371df7, type: 2}
    - target: {fileID: -927199367670048503, guid: 3ac20c35b3215974e8c345074c60980e,
        type: 3}
      propertyPath: m_Name
      value: 9mm
      objectReference: {fileID: 0}
    m_RemovedComponents: []
  m_SourcePrefab: {fileID: 100100000, guid: 3ac20c35b3215974e8c345074c60980e, type: 3}
--- !u!4 &6270688578644698466 stripped
Transform:
  m_CorrespondingSourceObject: {fileID: -4216859302048453862, guid: 3ac20c35b3215974e8c345074c60980e,
    type: 3}
  m_PrefabInstance: {fileID: 1332857438980722296}
  m_PrefabAsset: {fileID: 0}
